{
	"info": {
		"_postman_id": "d9338e06-cbdc-4809-8bd3-0822f464c953",
		"name": "javaspark-webapp",
		"schema": "https://schema.getpostman.com/json/collection/v2.1.0/collection.json",
		"_exporter_id": "5413565"
	},
	"item": [
		{
			"name": "Person",
			"item": [
				{
					"name": "Get All",
					"request": {
						"method": "GET",
						"header": [],
						"url": {
							"raw": "{{host}}/api/{{apiVersion}}/person/all",
							"host": [
								"{{host}}"
							],
							"path": [
								"api",
								"{{apiVersion}}",
								"person",
								"all"
							]
						}
					},
					"response": []
				},
				{
					"name": "Save",
					"request": {
						"method": "POST",
						"header": [],
						"body": {
							"mode": "raw",
							"raw": "{\r\n    \"rut\": 22222222,\r\n    \"email\": \"alejandra@mailinator.com\",\r\n    \"firstName\": \"Alejandra\",\r\n    \"lastName\": \"Manzanales\",\r\n    \"active\": true\r\n}",
							"options": {
								"raw": {
									"language": "json"
								}
							}
						},
						"url": {
							"raw": "{{host}}/api/{{apiVersion}}/person",
							"host": [
								"{{host}}"
							],
							"path": [
								"api",
								"{{apiVersion}}",
								"person"
							]
						}
					},
					"response": []
				},
				{
					"name": "Delete",
					"request": {
						"method": "DELETE",
						"header": [],
						"url": {
							"raw": "{{host}}/api/{{apiVersion}}/person/:id",
							"host": [
								"{{host}}"
							],
							"path": [
								"api",
								"{{apiVersion}}",
								"person",
								":id"
							],
							"variable": [
								{
									"key": "id",
									"value": "1"
								}
							]
						}
					},
					"response": []
				},
				{
					"name": "Get By Id",
					"request": {
						"method": "GET",
						"header": [],
						"url": {
							"raw": "{{host}}/api/{{apiVersion}}/person/:id",
							"host": [
								"{{host}}"
							],
							"path": [
								"api",
								"{{apiVersion}}",
								"person",
								":id"
							],
							"variable": [
								{
									"key": "id",
									"value": "4"
								}
							]
						}
					},
					"response": []
				}
			]
		}
	]
}